…
We’re accepting the same arguments as dplyr::select() and trying them in that function.
The tryCatch function detects whether the dplyr::select() throws an error:

if it doesn’t, then tryCatch returns the result

if it does, we execute the error function and return that result.
In this case, nothing()

In practice, this will look like:

# works
mselect(penguins, species)

## Just
## # A tibble: 344 × 1
##    species
##    <fct>  
##  1 Adelie 
##  2 Adelie 
##  3 Adelie 
##  4 Adelie 
##  5 Adelie 
##  6 Adelie 
##  7 Adelie 
##  8 Adelie 
##  9 Adelie 
## 10 Adelie 
## # … with 334 more rows
…
mfilter <- function(.data, ...) {
  tryCatch(just(dplyr::filter(.data, ...)),
           error = function(e) nothing())
}

It’s to dplyr::filter() what mselect() was to dplyr::select().

And now we can do things like:

just(penguins) %>>=%
  mselect(species) %>>=%
  mfilter(species == "Chinstrap")

## Just
## # A tibble: 68 × 1
##    species  
##    <fct>    
##  1 Chinstrap
##  2 Chinstrap
##  3 Chinstrap
##  4 Chinstrap
##  5 Chinstrap
##  6 Chinstrap
##  7 Chinstrap
##  8 Chinstrap
##  9 Chinstrap
## 10 Chinstrap
## # … with 58 more rows
…
